…
The 5-minute interval that, on average, contains the maximum number of steps


```r
data3<- data%>%
        group_by(interval)%>%
        summarise(mean = mean(steps,na.rm = T),
                max = max(steps,na.rm = T))
data3
```

```
## # A tibble: 288 x 3
##    interval   mean   max
##       <int>  <dbl> <int>
##  1        0 1.72      47
##  2        5 0.340     18
##  3       10 0.132      7
##  4       15 0.151      8
##  5       20 0.0755     4
##  6       25 2.09      52
##  7       30 0.528     28
##  8       35 0.868     46
##  9       40 0          0
## 10       45 1.47      72
## # ... with 278 more rows
```
…
